\relax 
\@writefile{toc}{\contentsline {section}{Problem 1}{2}}
\@writefile{lof}{\contentsline {figure}{\numberline {1}{\ignorespaces Example 1 for send-omission failures\relax }}{3}}
\providecommand*\caption@xref[2]{\@setref\relax\@undefined{#1}}
\newlabel{problem121}{{1}{3}}
\@writefile{lof}{\contentsline {figure}{\numberline {2}{\ignorespaces Example 2 for send-omission failures\relax }}{4}}
\newlabel{problem122}{{2}{4}}
\@writefile{toc}{\contentsline {section}{Problem 2}{5}}
\@writefile{loa}{\contentsline {algorithm}{\numberline {1}{\ignorespaces Use consensus algorithm to solve Terminating Reliable Broadcast for crash failure\relax }}{5}}
\@writefile{toc}{\contentsline {section}{Problem 3}{7}}
\@writefile{loa}{\contentsline {algorithm}{\numberline {2}{\ignorespaces Solve Unifrom TRB in a round-based system with \emph  {genral omission failures}\relax }}{7}}
\@writefile{lof}{\contentsline {figure}{\numberline {3}{\ignorespaces Example to prove that problem cannot be solved if $n \leq 2t$\relax }}{9}}
\newlabel{problem32}{{3}{9}}
\@writefile{toc}{\contentsline {section}{Problem 4}{10}}
\newlabel{LastPage}{{}{10}}
