\relax 
\@writefile{toc}{\contentsline {section}{Problem 1}{2}}
\@writefile{lof}{\contentsline {figure}{\numberline {1}{\ignorespaces Proof for consistency\relax }}{3}}
\providecommand*\caption@xref[2]{\@setref\relax\@undefined{#1}}
\newlabel{p1}{{1}{3}}
\@writefile{toc}{\contentsline {section}{Problem 2}{3}}
\@writefile{toc}{\contentsline {section}{Problem 3}{4}}
\@writefile{loa}{\contentsline {algorithm}{\numberline {1}{\ignorespaces \emph  {Bounded Loss}:Algorithm satisfies the requirements ({\em  Agreement, Validity, and Termination})\relax }}{5}}
\@writefile{loa}{\contentsline {algorithm}{\numberline {2}{\ignorespaces \emph  {Eventual delivery:}Algorithm satisfies the requirements ({\em  Agreement, Validity, and Termination})\relax }}{6}}
\@writefile{loa}{\contentsline {algorithm}{\numberline {3}{\ignorespaces \emph  {Bounded Loss}:Algorithm satisfies the requirements ({\em  Agreement, Validity, Termination, and Halt})\relax }}{7}}
\@writefile{toc}{\contentsline {section}{Problem 4}{8}}
\@writefile{lof}{\contentsline {figure}{\numberline {2}{\ignorespaces Proof for Causal Order is equivalent to FIFO Order plus X\relax }}{9}}
\newlabel{p4}{{2}{9}}
\@writefile{toc}{\contentsline {section}{Problem 5}{10}}
\@writefile{loa}{\contentsline {algorithm}{\numberline {4}{\ignorespaces Algorithm that guarantees messages between nodes are delivered in causal order. \relax }}{11}}
\@writefile{lof}{\contentsline {figure}{\numberline {3}{\ignorespaces An example for the causal order delivery algorithm\relax }}{11}}
\newlabel{p5}{{3}{11}}
\newlabel{LastPage}{{}{12}}
