\relax 
\@writefile{toc}{\contentsline {section}{Problem 1}{2}}
\@writefile{loa}{\contentsline {algorithm}{\numberline {1}{\ignorespaces Use consensus algorithm to solve Terminating Reliable Broadcast for crash failure in $f+1$ rounds in a synchronous system with $f$ crash failures\relax }}{2}}
\@writefile{toc}{\contentsline {section}{Problem 2}{5}}
\@writefile{toc}{\contentsline {section}{Problem 3}{7}}
\@writefile{loa}{\contentsline {algorithm}{\numberline {2}{\ignorespaces pseudo-code for a leader-election protocol that require $O(n)$ messages($n$ is known to all)\relax }}{7}}
\@writefile{loa}{\contentsline {algorithm}{\numberline {3}{\ignorespaces pseudo-code for a leader-election protocol that require $O(n)$ messages($n$ is unknown to all)\relax }}{8}}
\@writefile{toc}{\contentsline {section}{Problem 4}{10}}
\@writefile{toc}{\contentsline {section}{Problem 5}{11}}
\newlabel{LastPage}{{}{11}}
